{
  "logs": [
    {
      "time": "2016.05.15",
      "phone": "138****1234"
    },
    {
      "time": "2016.05.15",
      "phone": "138****1234"
    },
    {
      "time": "2016.05.15",
      "phone": "138****1234"
    },
    {
      "time": "2016.05.15",
      "phone": "138****1234"
    },
    {
      "time": "2016.05.15",
      "phone": "138****1234"
    },
    {
      "time": "2016.05.15",
      "phone": "138****1234"
    },
    {
      "time": "2016.05.15",
      "phone": "138****1234"
    },
    {
      "time": "2016.05.15",
      "phone": "138****1234"
    },
    {
      "time": "2016.05.15",
      "phone": "138****1234"
    },
    {
      "time": "2016.05.15",
      "phone": "138****1234"
    }
  ],
  "pager": {
    "total": 48,
    "per_page": "10",
    "current_page": "1",
    "last_page": 5,
    "from": 1,
    "to": 20
  },
  "total": "48"
}